pipeline.vcd
$date
	Sat Mar 14 22:08:28 2026
$end
$version
	Icarus Verilog
$end
$timescale
	1ps
$end
$scope module PipelinedProc_tb $end
$var wire 32 ! MemToRegOut [31:0] $end
$var reg 1 " Clk $end
$var reg 1 # reset $end
$var reg 32 $ startPC [31:0] $end
$var integer 32 % cycle_count [31:0] $end
$scope module CPU $end
$var wire 1 " Clk $end
$var wire 1 # reset $end
$var wire 32 & startPC [31:0] $end
$var wire 1 ' zero $end
$var wire 1 ( stall $end
$var wire 3 ) sel [2:0] $end
$var wire 7 * opcode [6:0] $end
$var wire 32 + nextPC [31:0] $end
$var wire 32 , forwarded_store_data [31:0] $end
$var wire 32 - forwardedB [31:0] $end
$var wire 32 . forwardedA [31:0] $end
$var wire 5 / WB_rD [4:0] $end
$var wire 32 0 WB_memOut [31:0] $end
$var wire 32 1 WB_currentPCPlus4 [31:0] $end
$var wire 32 2 WB_currentPC [31:0] $end
$var wire 1 3 WB_RegWrite $end
$var wire 2 4 WB_MemToReg [1:0] $end
$var wire 32 5 WB_ALUResult [31:0] $end
$var wire 5 6 MEM_rs2 [4:0] $end
$var wire 5 7 MEM_rs1 [4:0] $end
$var wire 5 8 MEM_rD [4:0] $end
$var wire 32 9 MEM_rB [31:0] $end
$var wire 32 : MEM_memOut [31:0] $end
$var wire 3 ; MEM_funct3 [2:0] $end
$var wire 32 < MEM_currentPCPlus4 [31:0] $end
$var wire 32 = MEM_currentPC [31:0] $end
$var wire 1 > MEM_RegWrite $end
$var wire 1 ? MEM_Memread $end
$var wire 1 @ MEM_MemWrite $end
$var wire 2 A MEM_MemToReg [1:0] $end
$var wire 32 B MEM_ALUResult [31:0] $end
$var wire 5 C IF_rs2 [4:0] $end
$var wire 5 D IF_rs1 [4:0] $end
$var wire 32 E IF_instruction [31:0] $end
$var wire 32 F IF_currentPCPlus4 [31:0] $end
$var wire 1 G IFID_flush $end
$var wire 5 H ID_rs2 [4:0] $end
$var wire 5 I ID_rs1 [4:0] $end
$var wire 5 J ID_rD [4:0] $end
$var wire 32 K ID_rB [31:0] $end
$var wire 32 L ID_rA [31:0] $end
$var wire 32 M ID_instruction [31:0] $end
$var wire 32 N ID_imm32 [31:0] $end
$var wire 7 O ID_funct7 [6:0] $end
$var wire 3 P ID_funct3 [2:0] $end
$var wire 32 Q ID_currentPCPlus4 [31:0] $end
$var wire 32 R ID_currentPC [31:0] $end
$var wire 1 S ID_RegWrite $end
$var wire 1 T ID_Memread $end
$var wire 1 U ID_MemWrite $end
$var wire 2 V ID_MemToReg [1:0] $end
$var wire 1 W ID_Jump $end
$var wire 1 X ID_Jalr $end
$var wire 1 Y ID_Branch $end
$var wire 1 Z ID_ALUsrcB $end
$var wire 1 [ ID_ALUsrcA $end
$var wire 3 \ ID_ALUOp [2:0] $end
$var wire 1 ] IDEX_flush $end
$var wire 5 ^ EX_rs2 [4:0] $end
$var wire 5 _ EX_rs1 [4:0] $end
$var wire 5 ` EX_rD [4:0] $end
$var wire 32 a EX_rB [31:0] $end
$var wire 32 b EX_rA [31:0] $end
$var wire 32 c EX_imm32 [31:0] $end
$var wire 7 d EX_funct7 [6:0] $end
$var wire 3 e EX_funct3 [2:0] $end
$var wire 32 f EX_currentPCPlus4 [31:0] $end
$var wire 32 g EX_currentPC [31:0] $end
$var wire 1 h EX_RegWrite $end
$var wire 1 i EX_Memread $end
$var wire 1 j EX_MemWrite $end
$var wire 2 k EX_MemToReg [1:0] $end
$var wire 1 l EX_Jump $end
$var wire 1 m EX_Jalr $end
$var wire 1 n EX_Branch $end
$var wire 1 o EX_ALUsrcB $end
$var wire 1 p EX_ALUsrcA $end
$var wire 32 q EX_ALUResult [31:0] $end
$var wire 3 r EX_ALUOp [2:0] $end
$var wire 4 s ALUCtrl [3:0] $end
$var reg 32 t IF_currentPC [31:0] $end
$var reg 32 u MemToRegOut [31:0] $end
$var reg 1 v branchTaken $end
$var reg 32 w redirect_target [31:0] $end
$var reg 1 x redirect_valid $end
$scope module ALUC $end
$var wire 7 y funct7 [6:0] $end
$var wire 3 z funct3 [2:0] $end
$var wire 3 { ALUOp [2:0] $end
$var reg 4 | ALUCtrl [3:0] $end
$upscope $end
$scope module DataMemory $end
$var wire 1 " Clk $end
$var wire 32 } wri_data [31:0] $end
$var wire 16 ~ masked_addr [15:0] $end
$var wire 3 !" funct3 [2:0] $end
$var wire 32 "" addr [31:0] $end
$var wire 1 @ Memwrite $end
$var wire 1 ? Memread $end
$var reg 1 #" Memread_internal $end
$var reg 32 $" read_data [31:0] $end
$var reg 32 %" tohost [31:0] $end
$var integer 32 &" i [31:0] $end
$upscope $end
$scope module Hazard $end
$var wire 32 '" MemToRegOut [31:0] $end
$var wire 1 x redirect_valid $end
$var wire 5 (" MEM_rs1 [4:0] $end
$var wire 32 )" MEM_rB [31:0] $end
$var wire 1 @ MEM_MemWrite $end
$var wire 5 *" MEMWB_rD [4:0] $end
$var wire 1 3 MEMWB_RegWrite $end
$var wire 5 +" IFID_rs2 [4:0] $end
$var wire 5 ," IFID_rs1 [4:0] $end
$var wire 5 -" IDEX_rs2 [4:0] $end
$var wire 5 ." IDEX_rs1 [4:0] $end
$var wire 5 /" IDEX_rD [4:0] $end
$var wire 1 i IDEX_MemRead $end
$var wire 32 0" EX_rB [31:0] $end
$var wire 32 1" EX_rA [31:0] $end
$var wire 5 2" EXMEM_rs2 [4:0] $end
$var wire 5 3" EXMEM_rD [4:0] $end
$var wire 32 4" EXMEM_rB [31:0] $end
$var wire 1 > EXMEM_RegWrite $end
$var wire 32 5" EXMEM_ALUResult [31:0] $end
$var reg 1 ] IDEX_flush $end
$var reg 1 G IFID_flush $end
$var reg 32 6" forwardedA [31:0] $end
$var reg 32 7" forwardedB [31:0] $end
$var reg 32 8" forwarded_store_data [31:0] $end
$var reg 1 ( stall $end
$upscope $end
$scope module ImmediateGenerator $end
$var wire 3 9" sel [2:0] $end
$var wire 32 :" ins [31:0] $end
$var reg 32 ;" imm32 [31:0] $end
$upscope $end
$scope module InstructionMemory $end
$var wire 32 <" PC [31:0] $end
$var wire 32 =" instruction [31:0] $end
$upscope $end
$scope module PCLogic $end
$var wire 32 >" inPC [31:0] $end
$var wire 32 ?" redirect_target [31:0] $end
$var wire 1 x redirect_valid $end
$var wire 1 ( stall $end
$var reg 32 @" outPC [31:0] $end
$upscope $end
$scope module RegFile $end
$var wire 1 " Clk $end
$var wire 32 A" rD [31:0] $end
$var wire 1 B" sameA $end
$var wire 1 C" sameB $end
$var wire 5 D" rDi [4:0] $end
$var wire 5 E" rBi [4:0] $end
$var wire 32 F" rB [31:0] $end
$var wire 5 G" rAi [4:0] $end
$var wire 32 H" rA [31:0] $end
$var wire 1 3 WriE $end
$var integer 32 I" i [31:0] $end
$upscope $end
$scope module alu $end
$var wire 32 J" A [31:0] $end
$var wire 4 K" ALUCtrl [3:0] $end
$var wire 32 L" B [31:0] $end
$var wire 1 ' zero $end
$var reg 32 M" ALUResult [31:0] $end
$upscope $end
$scope module control $end
$var wire 7 N" opcode [6:0] $end
$var reg 3 O" ALUOp [2:0] $end
$var reg 1 [ ALUsrcA $end
$var reg 1 Z ALUsrcB $end
$var reg 1 Y Branch $end
$var reg 1 X Jalr $end
$var reg 1 W Jump $end
$var reg 2 P" MemToReg [1:0] $end
$var reg 1 T Memread $end
$var reg 1 U Memwrite $end
$var reg 1 S RegWrite $end
$var reg 3 Q" sel [2:0] $end
$upscope $end
$scope module pipeline1 $end
$var wire 1 " Clk $end
$var wire 1 G IFID_flush $end
$var wire 32 R" instruction1 [31:0] $end
$var wire 32 S" pc1 [31:0] $end
$var wire 32 T" pc1Plus4 [31:0] $end
$var wire 1 # reset $end
$var wire 5 U" rs1_in [4:0] $end
$var wire 5 V" rs2_in [4:0] $end
$var wire 1 ( stall $end
$var reg 32 W" instruction2 [31:0] $end
$var reg 32 X" pc2 [31:0] $end
$var reg 32 Y" pc2Plus4 [31:0] $end
$var reg 5 Z" rs1_out [4:0] $end
$var reg 5 [" rs2_out [4:0] $end
$upscope $end
$scope module pipeline2 $end
$var wire 3 \" ALUOp2 [2:0] $end
$var wire 1 [ ALUsrcA2 $end
$var wire 1 Z ALUsrcB2 $end
$var wire 1 Y Branch2 $end
$var wire 1 " Clk $end
$var wire 1 ] IDEX_flush $end
$var wire 1 X Jalr2 $end
$var wire 1 W Jump2 $end
$var wire 2 ]" MemToReg_in [1:0] $end
$var wire 1 T Memread_in $end
$var wire 1 U Memwrite_in $end
$var wire 1 S RegWrite_in $end
$var wire 3 ^" funct3_2 [2:0] $end
$var wire 7 _" funct7_2 [6:0] $end
$var wire 32 `" imm32_2 [31:0] $end
$var wire 32 a" pc2 [31:0] $end
$var wire 32 b" pc2Plus4 [31:0] $end
$var wire 32 c" rA2 [31:0] $end
$var wire 32 d" rB2 [31:0] $end
$var wire 5 e" rWR_in [4:0] $end
$var wire 1 # reset $end
$var wire 5 f" rs1_in [4:0] $end
$var wire 5 g" rs2_in [4:0] $end
$var wire 1 ( stall $end
$var reg 3 h" ALUOp3 [2:0] $end
$var reg 1 p ALUsrcA3 $end
$var reg 1 o ALUsrcB3 $end
$var reg 1 n Branch3 $end
$var reg 1 m Jalr3 $end
$var reg 1 l Jump3 $end
$var reg 2 i" MemToReg_out [1:0] $end
$var reg 1 i Memread_out $end
$var reg 1 j Memwrite_out $end
$var reg 1 h RegWrite_out $end
$var reg 3 j" funct3_3 [2:0] $end
$var reg 7 k" funct7_3 [6:0] $end
$var reg 32 l" imm32_3 [31:0] $end
$var reg 32 m" pc3 [31:0] $end
$var reg 32 n" pc3Plus4 [31:0] $end
$var reg 32 o" rA3 [31:0] $end
$var reg 32 p" rB3 [31:0] $end
$var reg 5 q" rWR_out [4:0] $end
$var reg 5 r" rs1_out [4:0] $end
$var reg 5 s" rs2_out [4:0] $end
$upscope $end
$scope module pipeline3 $end
$var wire 32 t" ALUResult3 [31:0] $end
$var wire 1 " Clk $end
$var wire 2 u" MemToReg_in [1:0] $end
$var wire 1 i Memread3 $end
$var wire 1 j Memwrite3 $end
$var wire 1 h RegWrite_in $end
$var wire 3 v" funct3_3 [2:0] $end
$var wire 32 w" nextPC_in [31:0] $end
$var wire 32 x" pc3Plus4 [31:0] $end
$var wire 32 y" rB3 [31:0] $end
$var wire 5 z" rWR_in [4:0] $end
$var wire 1 # reset $end
$var wire 5 {" rs1_in [4:0] $end
$var wire 5 |" rs2_in [4:0] $end
$var reg 32 }" ALUResult4 [31:0] $end
$var reg 2 ~" MemToReg_out [1:0] $end
$var reg 1 ? Memread4 $end
$var reg 1 @ Memwrite4 $end
$var reg 1 > RegWrite_out $end
$var reg 3 !# funct3_4 [2:0] $end
$var reg 32 "# nextPC_out [31:0] $end
$var reg 32 ## pc4Plus4 [31:0] $end
$var reg 32 $# rB4 [31:0] $end
$var reg 5 %# rWR_out [4:0] $end
$var reg 5 &# rs1_out [4:0] $end
$var reg 5 '# rs2_out [4:0] $end
$upscope $end
$scope module pipeline4 $end
$var wire 32 (# ALUResult4 [31:0] $end
$var wire 1 " Clk $end
$var wire 2 )# MemToReg4 [1:0] $end
$var wire 1 > RegWrite4 $end
$var wire 32 *# pc4 [31:0] $end
$var wire 32 +# pc4Plus4 [31:0] $end
$var wire 5 ,# rWR4 [4:0] $end
$var wire 32 -# readData4 [31:0] $end
$var wire 1 # reset $end
$var reg 32 .# ALUResult5 [31:0] $end
$var reg 2 /# MemToReg5 [1:0] $end
$var reg 1 3 RegWrite5 $end
$var reg 32 0# pc5 [31:0] $end
$var reg 32 1# pc5Plus4 [31:0] $end
$var reg 5 2# rWR5 [4:0] $end
$var reg 32 3# readData5 [31:0] $end
$upscope $end
$upscope $end
$upscope $end
$enddefinitions $end
#0
$dumpvars
bx 3#
bx 2#
bx 1#
bx 0#
bx /#
bx .#
bx -#
bx ,#
bx +#
bx *#
bx )#
bx (#
bx '#
bx &#
bx %#
bx $#
bx ##
bx "#
bx !#
bx ~"
bx }"
bx |"
bx {"
bx z"
bx y"
bx x"
bx w"
bx v"
bx u"
bx t"
bx s"
bx r"
bx q"
bx p"
bx o"
bx n"
bx m"
bx l"
bx k"
bx j"
bx i"
bx h"
bx g"
bx f"
bx e"
bx d"
bx c"
bx b"
bx a"
b0 `"
bx _"
bx ^"
b0 ]"
b0 \"
bx ["
bx Z"
bx Y"
bx X"
bx W"
bx V"
bx U"
bx T"
bx S"
bx R"
b111 Q"
b0 P"
b0 O"
bx N"
bx M"
bx L"
bx K"
bx J"
b100000 I"
bx H"
bx G"
bx F"
bx E"
bx D"
xC"
xB"
b0 A"
bx @"
bx ?"
bx >"
bx ="
bx <"
b0 ;"
bx :"
b111 9"
bx 8"
bx 7"
bx 6"
bx 5"
bx 4"
bx 3"
bx 2"
bx 1"
bx 0"
bx /"
bx ."
bx -"
bx ,"
bx +"
bx *"
bx )"
bx ("
b0 '"
b10000000000000000 &"
b0 %"
bx $"
0#"
bx ""
bx !"
bx ~
bx }
bx |
bx {
bx z
bx y
0x
bx w
xv
b0 u
bx t
bx s
bx r
bx q
xp
xo
xn
xm
xl
bx k
xj
xi
xh
bx g
bx f
bx e
bx d
bx c
bx b
bx a
bx `
bx _
bx ^
0]
b0 \
0[
0Z
0Y
0X
0W
b0 V
0U
0T
0S
bx R
bx Q
bx P
bx O
b0 N
bx M
bx L
bx K
bx J
bx I
bx H
0G
bx F
bx E
bx D
bx C
bx B
bx A
x@
x?
x>
bx =
bx <
bx ;
bx :
bx 9
bx 8
bx 7
bx 6
bx 5
bx 4
x3
bx 2
bx 1
bx 0
bx /
bx .
bx -
bx ,
bx +
bx *
b111 )
0(
x'
b10000000000000000000000000000000 &
b0 %
b10000000000000000000000000000000 $
1#
0"
b0 !
$end
#5000
1'
b0 q
b0 M"
b0 t"
b0 D
b0 U"
b10000 C
b10000 V"
b0 K
b0 F"
b0 d"
0C"
b0 L
b0 H"
b0 c"
0B"
b0 *
b0 N"
b0 J
b0 e"
b0 P
b0 ^"
b0 O
b0 _"
b0 s
b0 |
b0 K"
0v
b0 L"
b0 J"
b0 ~
b0 -
b0 7"
b0 y"
b0 .
b0 6"
b101000000000000000001101111 E
b101000000000000000001101111 ="
b101000000000000000001101111 R"
b10000000000000000000000000000100 +
b10000000000000000000000000000100 @"
b0 H
b0 +"
b0 E"
b0 ["
b0 g"
b0 I
b0 ,"
b0 G"
b0 Z"
b0 f"
b0 Q
b0 Y"
b0 b"
b0 R
b0 X"
b0 a"
b0 M
b0 :"
b0 W"
b0 ^
b0 -"
b0 s"
b0 |"
b0 _
b0 ."
b0 r"
b0 {"
b0 e
b0 z
b0 j"
b0 v"
b0 d
b0 y
b0 k"
b0 `
b0 /"
b0 q"
b0 z"
b0 c
b0 l"
b0 r
b0 {
b0 h"
0l
0m
0n
0p
0o
b0 k
b0 i"
b0 u"
0j
0i
0h
b0 a
b0 0"
b0 p"
b0 b
b0 1"
b0 o"
b0 g
b0 m"
b0 w"
b0 f
b0 n"
b0 x"
b0 6
b0 2"
b0 '#
b0 7
b0 ("
b0 &#
b0 8
b0 3"
b0 %#
b0 ,#
b0 ;
b0 !"
b0 !#
b0 A
b0 ~"
b0 )#
0@
0?
0>
b0 9
b0 )"
b0 4"
b0 $#
b0 <
b0 ##
b0 +#
b0 =
b0 "#
b0 *#
b0 B
b0 ""
b0 5"
b0 }"
b0 (#
b0 2
b0 0#
b0 1
b0 1#
b0 /
b0 *"
b0 D"
b0 2#
b0 4
b0 /#
03
b0 0
b0 3#
b0 5
b0 .#
b10000000000000000000000000000100 F
b10000000000000000000000000000100 T"
b10000000000000000000000000000000 t
b10000000000000000000000000000000 <"
b10000000000000000000000000000000 >"
b10000000000000000000000000000000 S"
1"
#6000
b0 :
b0 $"
b0 -#
#10000
0"
#15000
1"
#20000
0"
0#
#25000
b1010000 N
b1010000 ;"
b1010000 `"
b10 C
b10 V"
b100 )
b100 9"
b100 Q"
1W
1Z
b10 V
b10 P"
b10 ]"
1S
b1101111 *
b1101111 N"
b10 O
b10 _"
b110100001000000010111101110011 E
b110100001000000010111101110011 ="
b110100001000000010111101110011 R"
b10000000000000000000000000001000 +
b10000000000000000000000000001000 @"
b10000 H
b10000 +"
b10000 E"
b10000 ["
b10000 g"
b10000000000000000000000000000100 Q
b10000000000000000000000000000100 Y"
b10000000000000000000000000000100 b"
b10000000000000000000000000000000 R
b10000000000000000000000000000000 X"
b10000000000000000000000000000000 a"
b101000000000000000001101111 M
b101000000000000000001101111 :"
b101000000000000000001101111 W"
b10000000000000000000000000001000 F
b10000000000000000000000000001000 T"
b10000000000000000000000000000100 t
b10000000000000000000000000000100 <"
b10000000000000000000000000000100 >"
b10000000000000000000000000000100 S"
b1 %
1"
#30000
0"
#35000
b1000 C
b1000 V"
0'
b1010000 q
b1010000 M"
b1010000 t"
1]
1G
b100000000000111110010011 E
b100000000000111110010011 ="
b100000000000111110010011 R"
b1010000 L"
1x
b10000000000000000000000001010000 w
b10000000000000000000000001010000 ?"
b10000000000000000000000001010000 +
b10000000000000000000000001010000 @"
b0 )
b0 9"
b0 Q"
0W
0Z
b0 V
b0 P"
b0 ]"
0S
b1110011 *
b1110011 N"
b11110 J
b11110 e"
b10 P
b10 ^"
b11010 O
b11010 _"
b1101000010 N
b1101000010 ;"
b1101000010 `"
b10 %
b10000000000000000000000000001100 F
b10000000000000000000000000001100 T"
b10000000000000000000000000001000 t
b10000000000000000000000000001000 <"
b10000000000000000000000000001000 >"
b10000000000000000000000000001000 S"
b10000 ^
b10000 -"
b10000 s"
b10000 |"
b10 d
b10 y
b10 k"
b1010000 c
b1010000 l"
1l
1o
b10 k
b10 i"
b10 u"
1h
b10000000000000000000000000000000 g
b10000000000000000000000000000000 m"
b10000000000000000000000000000000 w"
b10000000000000000000000000000100 f
b10000000000000000000000000000100 n"
b10000000000000000000000000000100 x"
b10 H
b10 +"
b10 E"
b10 ["
b10 g"
b10000000000000000000000000001000 Q
b10000000000000000000000000001000 Y"
b10000000000000000000000000001000 b"
b10000000000000000000000000000100 R
b10000000000000000000000000000100 X"
b10000000000000000000000000000100 a"
b110100001000000010111101110011 M
b110100001000000010111101110011 :"
b110100001000000010111101110011 W"
1"
#40000
0"
#45000
1'
b0 q
b0 M"
b0 t"
b111 )
b111 9"
b111 Q"
0]
0G
b10000000000000000000000001010100 +
b10000000000000000000000001010100 @"
b0 C
b0 V"
b0 *
b0 N"
b0 J
b0 e"
b0 P
b0 ^"
b0 O
b0 _"
b0 N
b0 ;"
b0 `"
b0 L"
0x
b1010000 ~
b10010011 E
b10010011 ="
b10010011 R"
b0 H
b0 +"
b0 E"
b0 ["
b0 g"
b0 Q
b0 Y"
b0 b"
b0 R
b0 X"
b0 a"
b0 M
b0 :"
b0 W"
b0 ^
b0 -"
b0 s"
b0 |"
b0 d
b0 y
b0 k"
b0 c
b0 l"
0l
0o
b0 k
b0 i"
b0 u"
0h
b10000000000000000000000000000100 g
b10000000000000000000000000000100 m"
b10000000000000000000000000000100 w"
b10000000000000000000000000001000 f
b10000000000000000000000000001000 n"
b10000000000000000000000000001000 x"
b10000 6
b10000 2"
b10000 '#
b10 A
b10 ~"
b10 )#
1>
b10000000000000000000000000000100 <
b10000000000000000000000000000100 ##
b10000000000000000000000000000100 +#
b10000000000000000000000000000000 =
b10000000000000000000000000000000 "#
b10000000000000000000000000000000 *#
b1010000 B
b1010000 ""
b1010000 5"
b1010000 }"
b1010000 (#
b10000000000000000000000001010100 F
b10000000000000000000000001010100 T"
b10000000000000000000000001010000 t
b10000000000000000000000001010000 <"
b10000000000000000000000001010000 >"
b10000000000000000000000001010000 S"
b11 %
1"
#50000
0"
#55000
b100010011 E
b100010011 ="
b100010011 R"
b10000000000000000000000000000100 !
b10000000000000000000000000000100 u
b10000000000000000000000000000100 '"
b10000000000000000000000000000100 A"
b0 ~
b10000000000000000000000001011000 +
b10000000000000000000000001011000 @"
b0 )
b0 9"
b0 Q"
1Z
b11 \
b11 O"
b11 \"
1S
b10011 *
b10011 N"
b1 J
b1 e"
b100 %
b10000000000000000000000001011000 F
b10000000000000000000000001011000 T"
b10000000000000000000000001010100 t
b10000000000000000000000001010100 <"
b10000000000000000000000001010100 >"
b10000000000000000000000001010100 S"
b10000000000000000000000000000000 2
b10000000000000000000000000000000 0#
b10000000000000000000000000000100 1
b10000000000000000000000000000100 1#
b10 4
b10 /#
13
b1010000 5
b1010000 .#
b0 6
b0 2"
b0 '#
b0 A
b0 ~"
b0 )#
0>
b10000000000000000000000000001000 <
b10000000000000000000000000001000 ##
b10000000000000000000000000001000 +#
b10000000000000000000000000000100 =
b10000000000000000000000000000100 "#
b10000000000000000000000000000100 *#
b0 B
b0 ""
b0 5"
b0 }"
b0 (#
b0 g
b0 m"
b0 w"
b0 f
b0 n"
b0 x"
b10000000000000000000000001010100 Q
b10000000000000000000000001010100 Y"
b10000000000000000000000001010100 b"
b10000000000000000000000001010000 R
b10000000000000000000000001010000 X"
b10000000000000000000000001010000 a"
b10010011 M
b10010011 :"
b10010011 W"
1"
#60000
0"
#65000
b10 J
b10 e"
b0 !
b0 u
b0 '"
b0 A"
b110010011 E
b110010011 ="
b110010011 R"
b10000000000000000000000001011100 +
b10000000000000000000000001011100 @"
b10000000000000000000000001011000 Q
b10000000000000000000000001011000 Y"
b10000000000000000000000001011000 b"
b10000000000000000000000001010100 R
b10000000000000000000000001010100 X"
b10000000000000000000000001010100 a"
b100010011 M
b100010011 :"
b100010011 W"
b1 `
b1 /"
b1 q"
b1 z"
b11 r
b11 {
b11 h"
1o
1h
b10000000000000000000000001010000 g
b10000000000000000000000001010000 m"
b10000000000000000000000001010000 w"
b10000000000000000000000001010100 f
b10000000000000000000000001010100 n"
b10000000000000000000000001010100 x"
b0 <
b0 ##
b0 +#
b0 =
b0 "#
b0 *#
b10000000000000000000000000000100 2
b10000000000000000000000000000100 0#
b10000000000000000000000000001000 1
b10000000000000000000000000001000 1#
b0 4
b0 /#
03
b0 5
b0 .#
b10000000000000000000000001011100 F
b10000000000000000000000001011100 T"
b10000000000000000000000001011000 t
b10000000000000000000000001011000 <"
b10000000000000000000000001011000 >"
b10000000000000000000000001011000 S"
b101 %
1"
#70000
0"
#75000
b1000010011 E
b1000010011 ="
b1000010011 R"
b10000000000000000000000001100000 +
b10000000000000000000000001100000 @"
b11 J
b11 e"
b110 %
b10000000000000000000000001100000 F
b10000000000000000000000001100000 T"
b10000000000000000000000001011100 t
b10000000000000000000000001011100 <"
b10000000000000000000000001011100 >"
b10000000000000000000000001011100 S"
b0 2
b0 0#
b0 1
b0 1#
b1 8
b1 3"
b1 %#
b1 ,#
1>
b10000000000000000000000001010100 <
b10000000000000000000000001010100 ##
b10000000000000000000000001010100 +#
b10000000000000000000000001010000 =
b10000000000000000000000001010000 "#
b10000000000000000000000001010000 *#
b10 `
b10 /"
b10 q"
b10 z"
b10000000000000000000000001010100 g
b10000000000000000000000001010100 m"
b10000000000000000000000001010100 w"
b10000000000000000000000001011000 f
b10000000000000000000000001011000 n"
b10000000000000000000000001011000 x"
b10000000000000000000000001011100 Q
b10000000000000000000000001011100 Y"
b10000000000000000000000001011100 b"
b10000000000000000000000001011000 R
b10000000000000000000000001011000 X"
b10000000000000000000000001011000 a"
b110010011 M
b110010011 :"
b110010011 W"
1"
#80000
0"
#85000
b100 J
b100 e"
b1010010011 E
b1010010011 ="
b1010010011 R"
b10000000000000000000000001100100 +
b10000000000000000000000001100100 @"
b10000000000000000000000001100000 Q
b10000000000000000000000001100000 Y"
b10000000000000000000000001100000 b"
b10000000000000000000000001011100 R
b10000000000000000000000001011100 X"
b10000000000000000000000001011100 a"
b1000010011 M
b1000010011 :"
b1000010011 W"
b11 `
b11 /"
b11 q"
b11 z"
b10000000000000000000000001011000 g
b10000000000000000000000001011000 m"
b10000000000000000000000001011000 w"
b10000000000000000000000001011100 f
b10000000000000000000000001011100 n"
b10000000000000000000000001011100 x"
b10 8
b10 3"
b10 %#
b10 ,#
b10000000000000000000000001011000 <
b10000000000000000000000001011000 ##
b10000000000000000000000001011000 +#
b10000000000000000000000001010100 =
b10000000000000000000000001010100 "#
b10000000000000000000000001010100 *#
b10000000000000000000000001010000 2
b10000000000000000000000001010000 0#
b10000000000000000000000001010100 1
b10000000000000000000000001010100 1#
b1 /
b1 *"
b1 D"
b1 2#
13
b10000000000000000000000001100100 F
b10000000000000000000000001100100 T"
b10000000000000000000000001100000 t
b10000000000000000000000001100000 <"
b10000000000000000000000001100000 >"
b10000000000000000000000001100000 S"
b111 %
1"
#90000
0"
#95000
b1100010011 E
b1100010011 ="
b1100010011 R"
b10000000000000000000000001101000 +
b10000000000000000000000001101000 @"
b101 J
b101 e"
b1000 %
b10000000000000000000000001101000 F
b10000000000000000000000001101000 T"
b10000000000000000000000001100100 t
b10000000000000000000000001100100 <"
b10000000000000000000000001100100 >"
b10000000000000000000000001100100 S"
b10000000000000000000000001010100 2
b10000000000000000000000001010100 0#
b10000000000000000000000001011000 1
b10000000000000000000000001011000 1#
b10 /
b10 *"
b10 D"
b10 2#
b11 8
b11 3"
b11 %#
b11 ,#
b10000000000000000000000001011100 <
b10000000000000000000000001011100 ##
b10000000000000000000000001011100 +#
b10000000000000000000000001011000 =
b10000000000000000000000001011000 "#
b10000000000000000000000001011000 *#
b100 `
b100 /"
b100 q"
b100 z"
b10000000000000000000000001011100 g
b10000000000000000000000001011100 m"
b10000000000000000000000001011100 w"
b10000000000000000000000001100000 f
b10000000000000000000000001100000 n"
b10000000000000000000000001100000 x"
b10000000000000000000000001100100 Q
b10000000000000000000000001100100 Y"
b10000000000000000000000001100100 b"
b10000000000000000000000001100000 R
b10000000000000000000000001100000 X"
b10000000000000000000000001100000 a"
b1010010011 M
b1010010011 :"
b1010010011 W"
1"
#100000
0"
#105000
b110 J
b110 e"
b1110010011 E
b1110010011 ="
b1110010011 R"
b10000000000000000000000001101100 +
b10000000000000000000000001101100 @"
b10000000000000000000000001101000 Q
b10000000000000000000000001101000 Y"
b10000000000000000000000001101000 b"
b10000000000000000000000001100100 R
b10000000000000000000000001100100 X"
b10000000000000000000000001100100 a"
b1100010011 M
b1100010011 :"
b1100010011 W"
b101 `
b101 /"
b101 q"
b101 z"
b10000000000000000000000001100000 g
b10000000000000000000000001100000 m"
b10000000000000000000000001100000 w"
b10000000000000000000000001100100 f
b10000000000000000000000001100100 n"
b10000000000000000000000001100100 x"
b100 8
b100 3"
b100 %#
b100 ,#
b10000000000000000000000001100000 <
b10000000000000000000000001100000 ##
b10000000000000000000000001100000 +#
b10000000000000000000000001011100 =
b10000000000000000000000001011100 "#
b10000000000000000000000001011100 *#
b10000000000000000000000001011000 2
b10000000000000000000000001011000 0#
b10000000000000000000000001011100 1
b10000000000000000000000001011100 1#
b11 /
b11 *"
b11 D"
b11 2#
b10000000000000000000000001101100 F
b10000000000000000000000001101100 T"
b10000000000000000000000001101000 t
b10000000000000000000000001101000 <"
b10000000000000000000000001101000 >"
b10000000000000000000000001101000 S"
b1001 %
1"
#110000
0"
#115000
b10000010011 E
b10000010011 ="
b10000010011 R"
b10000000000000000000000001110000 +
b10000000000000000000000001110000 @"
b111 J
b111 e"
b1010 %
b10000000000000000000000001110000 F
b10000000000000000000000001110000 T"
b10000000000000000000000001101100 t
b10000000000000000000000001101100 <"
b10000000000000000000000001101100 >"
b10000000000000000000000001101100 S"
b10000000000000000000000001011100 2
b10000000000000000000000001011100 0#
b10000000000000000000000001100000 1
b10000000000000000000000001100000 1#
b100 /
b100 *"
b100 D"
b100 2#
b101 8
b101 3"
b101 %#
b101 ,#
b10000000000000000000000001100100 <
b10000000000000000000000001100100 ##
b10000000000000000000000001100100 +#
b10000000000000000000000001100000 =
b10000000000000000000000001100000 "#
b10000000000000000000000001100000 *#
b110 `
b110 /"
b110 q"
b110 z"
b10000000000000000000000001100100 g
b10000000000000000000000001100100 m"
b10000000000000000000000001100100 w"
b10000000000000000000000001101000 f
b10000000000000000000000001101000 n"
b10000000000000000000000001101000 x"
b10000000000000000000000001101100 Q
b10000000000000000000000001101100 Y"
b10000000000000000000000001101100 b"
b10000000000000000000000001101000 R
b10000000000000000000000001101000 X"
b10000000000000000000000001101000 a"
b1110010011 M
b1110010011 :"
b1110010011 W"
1"
#120000
0"
#125000
b1000 J
b1000 e"
b10010010011 E
b10010010011 ="
b10010010011 R"
b10000000000000000000000001110100 +
b10000000000000000000000001110100 @"
b10000000000000000000000001110000 Q
b10000000000000000000000001110000 Y"
b10000000000000000000000001110000 b"
b10000000000000000000000001101100 R
b10000000000000000000000001101100 X"
b10000000000000000000000001101100 a"
b10000010011 M
b10000010011 :"
b10000010011 W"
b111 `
b111 /"
b111 q"
b111 z"
b10000000000000000000000001101000 g
b10000000000000000000000001101000 m"
b10000000000000000000000001101000 w"
b10000000000000000000000001101100 f
b10000000000000000000000001101100 n"
b10000000000000000000000001101100 x"
b110 8
b110 3"
b110 %#
b110 ,#
b10000000000000000000000001101000 <
b10000000000000000000000001101000 ##
b10000000000000000000000001101000 +#
b10000000000000000000000001100100 =
b10000000000000000000000001100100 "#
b10000000000000000000000001100100 *#
b10000000000000000000000001100000 2
b10000000000000000000000001100000 0#
b10000000000000000000000001100100 1
b10000000000000000000000001100100 1#
b101 /
b101 *"
b101 D"
b101 2#
b10000000000000000000000001110100 F
b10000000000000000000000001110100 T"
b10000000000000000000000001110000 t
b10000000000000000000000001110000 <"
b10000000000000000000000001110000 >"
b10000000000000000000000001110000 S"
b1011 %
1"
#130000
0"
