pipeline.vcd
$date
	Mon Mar  2 20:36:07 2026
$end
$version
	Icarus Verilog
$end
$timescale
	1ps
$end
$scope module PipelinedProc_tb $end
$var wire 32 ! MemToRegOut [31:0] $end
$var reg 1 " Clk $end
$var reg 1 # reset $end
$var reg 32 $ startPC [31:0] $end
$scope module CPU $end
$var wire 1 " Clk $end
$var wire 1 # reset $end
$var wire 32 % startPC [31:0] $end
$var wire 1 & zero $end
$var wire 1 ' stall $end
$var wire 3 ( sel [2:0] $end
$var wire 7 ) opcode [6:0] $end
$var wire 32 * nextPC [31:0] $end
$var wire 32 + forwarded_store_data [31:0] $end
$var wire 32 , forwardedB [31:0] $end
$var wire 32 - forwardedA [31:0] $end
$var wire 5 . WB_rD [4:0] $end
$var wire 32 / WB_memOut [31:0] $end
$var wire 32 0 WB_currentPCPlus4 [31:0] $end
$var wire 32 1 WB_currentPC [31:0] $end
$var wire 1 2 WB_RegWrite $end
$var wire 2 3 WB_MemToReg [1:0] $end
$var wire 32 4 WB_ALUResult [31:0] $end
$var wire 5 5 MEM_rs2 [4:0] $end
$var wire 5 6 MEM_rs1 [4:0] $end
$var wire 5 7 MEM_rD [4:0] $end
$var wire 32 8 MEM_rB [31:0] $end
$var wire 32 9 MEM_memOut [31:0] $end
$var wire 3 : MEM_funct3 [2:0] $end
$var wire 32 ; MEM_currentPCPlus4 [31:0] $end
$var wire 32 < MEM_currentPC [31:0] $end
$var wire 1 = MEM_RegWrite $end
$var wire 1 > MEM_Memread $end
$var wire 1 ? MEM_MemWrite $end
$var wire 2 @ MEM_MemToReg [1:0] $end
$var wire 32 A MEM_ALUResult [31:0] $end
$var wire 5 B IF_rs2 [4:0] $end
$var wire 5 C IF_rs1 [4:0] $end
$var wire 32 D IF_instruction [31:0] $end
$var wire 32 E IF_currentPCPlus4 [31:0] $end
$var wire 1 F IFID_flush $end
$var wire 5 G ID_rs2 [4:0] $end
$var wire 5 H ID_rs1 [4:0] $end
$var wire 5 I ID_rD [4:0] $end
$var wire 32 J ID_rB [31:0] $end
$var wire 32 K ID_rA [31:0] $end
$var wire 32 L ID_instruction [31:0] $end
$var wire 32 M ID_imm32 [31:0] $end
$var wire 7 N ID_funct7 [6:0] $end
$var wire 3 O ID_funct3 [2:0] $end
$var wire 32 P ID_currentPCPlus4 [31:0] $end
$var wire 32 Q ID_currentPC [31:0] $end
$var wire 1 R ID_RegWrite $end
$var wire 1 S ID_Memread $end
$var wire 1 T ID_MemWrite $end
$var wire 2 U ID_MemToReg [1:0] $end
$var wire 1 V ID_Jump $end
$var wire 1 W ID_Jalr $end
$var wire 1 X ID_Branch $end
$var wire 1 Y ID_ALUsrc $end
$var wire 3 Z ID_ALUOp [2:0] $end
$var wire 1 [ IDEX_flush $end
$var wire 5 \ EX_rs2 [4:0] $end
$var wire 5 ] EX_rs1 [4:0] $end
$var wire 5 ^ EX_rD [4:0] $end
$var wire 32 _ EX_rB [31:0] $end
$var wire 32 ` EX_rA [31:0] $end
$var wire 32 a EX_imm32 [31:0] $end
$var wire 7 b EX_funct7 [6:0] $end
$var wire 3 c EX_funct3 [2:0] $end
$var wire 32 d EX_currentPCPlus4 [31:0] $end
$var wire 32 e EX_currentPC [31:0] $end
$var wire 1 f EX_RegWrite $end
$var wire 1 g EX_Memread $end
$var wire 1 h EX_MemWrite $end
$var wire 2 i EX_MemToReg [1:0] $end
$var wire 1 j EX_Jump $end
$var wire 1 k EX_Jalr $end
$var wire 1 l EX_Branch $end
$var wire 1 m EX_ALUsrc $end
$var wire 32 n EX_ALUResult [31:0] $end
$var wire 3 o EX_ALUOp [2:0] $end
$var wire 4 p ALUCtrl [3:0] $end
$var reg 32 q IF_currentPC [31:0] $end
$var reg 32 r MemToRegOut [31:0] $end
$var reg 1 s branchTaken $end
$var reg 32 t redirect_target [31:0] $end
$var reg 1 u redirect_valid $end
$scope module ALUC $end
$var wire 7 v funct7 [6:0] $end
$var wire 3 w funct3 [2:0] $end
$var wire 3 x ALUOp [2:0] $end
$var reg 4 y ALUCtrl [3:0] $end
$upscope $end
$scope module DataMemory $end
$var wire 1 " Clk $end
$var wire 32 z wri_data [31:0] $end
$var wire 3 { funct3 [2:0] $end
$var wire 32 | addr [31:0] $end
$var wire 1 ? Memwrite $end
$var wire 1 > Memread $end
$var reg 1 } Memread_internal $end
$var reg 32 ~ read_data [31:0] $end
$var integer 32 !" i [31:0] $end
$upscope $end
$scope module Hazard $end
$var wire 32 "" MemToRegOut [31:0] $end
$var wire 1 u redirect_valid $end
$var wire 5 #" MEM_rs1 [4:0] $end
$var wire 32 $" MEM_rB [31:0] $end
$var wire 1 ? MEM_MemWrite $end
$var wire 5 %" MEMWB_rD [4:0] $end
$var wire 1 2 MEMWB_RegWrite $end
$var wire 5 &" IFID_rs2 [4:0] $end
$var wire 5 '" IFID_rs1 [4:0] $end
$var wire 5 (" IDEX_rs2 [4:0] $end
$var wire 5 )" IDEX_rs1 [4:0] $end
$var wire 5 *" IDEX_rD [4:0] $end
$var wire 1 g IDEX_MemRead $end
$var wire 32 +" EX_rB [31:0] $end
$var wire 32 ," EX_rA [31:0] $end
$var wire 5 -" EXMEM_rs2 [4:0] $end
$var wire 5 ." EXMEM_rD [4:0] $end
$var wire 32 /" EXMEM_rB [31:0] $end
$var wire 1 = EXMEM_RegWrite $end
$var wire 32 0" EXMEM_ALUResult [31:0] $end
$var reg 1 [ IDEX_flush $end
$var reg 1 F IFID_flush $end
$var reg 32 1" forwardedA [31:0] $end
$var reg 32 2" forwardedB [31:0] $end
$var reg 32 3" forwarded_store_data [31:0] $end
$var reg 1 ' stall $end
$upscope $end
$scope module ImmediateGenerator $end
$var wire 3 4" sel [2:0] $end
$var wire 32 5" ins [31:0] $end
$var reg 32 6" imm32 [31:0] $end
$upscope $end
$scope module InstructionMemory $end
$var wire 32 7" PC [31:0] $end
$var wire 32 8" instruction [31:0] $end
$upscope $end
$scope module PCLogic $end
$var wire 32 9" inPC [31:0] $end
$var wire 32 :" redirect_target [31:0] $end
$var wire 1 u redirect_valid $end
$var wire 1 ' stall $end
$var reg 32 ;" outPC [31:0] $end
$upscope $end
$scope module RegFile $end
$var wire 1 " Clk $end
$var wire 32 <" rD [31:0] $end
$var wire 1 =" sameA $end
$var wire 1 >" sameB $end
$var wire 5 ?" rDi [4:0] $end
$var wire 5 @" rBi [4:0] $end
$var wire 32 A" rB [31:0] $end
$var wire 5 B" rAi [4:0] $end
$var wire 32 C" rA [31:0] $end
$var wire 1 2 WriE $end
$upscope $end
$scope module alu $end
$var wire 32 D" A [31:0] $end
$var wire 4 E" ALUCtrl [3:0] $end
$var wire 32 F" B [31:0] $end
$var wire 1 & zero $end
$var reg 32 G" ALUResult [31:0] $end
$upscope $end
$scope module control $end
$var wire 7 H" opcode [6:0] $end
$var reg 3 I" ALUOp [2:0] $end
$var reg 1 Y ALUsrc $end
$var reg 1 X Branch $end
$var reg 1 W Jalr $end
$var reg 1 V Jump $end
$var reg 2 J" MemToReg [1:0] $end
$var reg 1 S Memread $end
$var reg 1 T Memwrite $end
$var reg 1 R RegWrite $end
$var reg 3 K" sel [2:0] $end
$upscope $end
$scope module pipeline1 $end
$var wire 1 " Clk $end
$var wire 1 F IFID_flush $end
$var wire 32 L" instruction1 [31:0] $end
$var wire 32 M" pc1 [31:0] $end
$var wire 32 N" pc1Plus4 [31:0] $end
$var wire 1 # reset $end
$var wire 5 O" rs1_in [4:0] $end
$var wire 5 P" rs2_in [4:0] $end
$var wire 1 ' stall $end
$var reg 32 Q" instruction2 [31:0] $end
$var reg 32 R" pc2 [31:0] $end
$var reg 32 S" pc2Plus4 [31:0] $end
$var reg 5 T" rs1_out [4:0] $end
$var reg 5 U" rs2_out [4:0] $end
$upscope $end
$scope module pipeline2 $end
$var wire 3 V" ALUOp2 [2:0] $end
$var wire 1 Y ALUsrc2 $end
$var wire 1 X Branch2 $end
$var wire 1 " Clk $end
$var wire 1 [ IDEX_flush $end
$var wire 1 W Jalr2 $end
$var wire 1 V Jump2 $end
$var wire 2 W" MemToReg_in [1:0] $end
$var wire 1 S Memread_in $end
$var wire 1 T Memwrite_in $end
$var wire 1 R RegWrite_in $end
$var wire 3 X" funct3_2 [2:0] $end
$var wire 7 Y" funct7_2 [6:0] $end
$var wire 32 Z" imm32_2 [31:0] $end
$var wire 32 [" pc2 [31:0] $end
$var wire 32 \" pc2Plus4 [31:0] $end
$var wire 32 ]" rA2 [31:0] $end
$var wire 32 ^" rB2 [31:0] $end
$var wire 5 _" rWR_in [4:0] $end
$var wire 1 # reset $end
$var wire 5 `" rs1_in [4:0] $end
$var wire 5 a" rs2_in [4:0] $end
$var wire 1 ' stall $end
$var reg 3 b" ALUOp3 [2:0] $end
$var reg 1 m ALUsrc3 $end
$var reg 1 l Branch3 $end
$var reg 1 k Jalr3 $end
$var reg 1 j Jump3 $end
$var reg 2 c" MemToReg_out [1:0] $end
$var reg 1 g Memread_out $end
$var reg 1 h Memwrite_out $end
$var reg 1 f RegWrite_out $end
$var reg 3 d" funct3_3 [2:0] $end
$var reg 7 e" funct7_3 [6:0] $end
$var reg 32 f" imm32_3 [31:0] $end
$var reg 32 g" pc3 [31:0] $end
$var reg 32 h" pc3Plus4 [31:0] $end
$var reg 32 i" rA3 [31:0] $end
$var reg 32 j" rB3 [31:0] $end
$var reg 5 k" rWR_out [4:0] $end
$var reg 5 l" rs1_out [4:0] $end
$var reg 5 m" rs2_out [4:0] $end
$upscope $end
$scope module pipeline3 $end
$var wire 32 n" ALUResult3 [31:0] $end
$var wire 1 " Clk $end
$var wire 2 o" MemToReg_in [1:0] $end
$var wire 1 g Memread3 $end
$var wire 1 h Memwrite3 $end
$var wire 1 f RegWrite_in $end
$var wire 3 p" funct3_3 [2:0] $end
$var wire 32 q" nextPC_in [31:0] $end
$var wire 32 r" pc3Plus4 [31:0] $end
$var wire 32 s" rB3 [31:0] $end
$var wire 5 t" rWR_in [4:0] $end
$var wire 1 # reset $end
$var wire 5 u" rs1_in [4:0] $end
$var wire 5 v" rs2_in [4:0] $end
$var reg 32 w" ALUResult4 [31:0] $end
$var reg 2 x" MemToReg_out [1:0] $end
$var reg 1 > Memread4 $end
$var reg 1 ? Memwrite4 $end
$var reg 1 = RegWrite_out $end
$var reg 3 y" funct3_4 [2:0] $end
$var reg 32 z" nextPC_out [31:0] $end
$var reg 32 {" pc4Plus4 [31:0] $end
$var reg 32 |" rB4 [31:0] $end
$var reg 5 }" rWR_out [4:0] $end
$var reg 5 ~" rs1_out [4:0] $end
$var reg 5 !# rs2_out [4:0] $end
$upscope $end
$scope module pipeline4 $end
$var wire 32 "# ALUResult4 [31:0] $end
$var wire 1 " Clk $end
$var wire 2 ## MemToReg4 [1:0] $end
$var wire 1 = RegWrite4 $end
$var wire 32 $# pc4 [31:0] $end
$var wire 32 %# pc4Plus4 [31:0] $end
$var wire 5 &# rWR4 [4:0] $end
$var wire 32 '# readData4 [31:0] $end
$var wire 1 # reset $end
$var reg 32 (# ALUResult5 [31:0] $end
$var reg 2 )# MemToReg5 [1:0] $end
$var reg 1 2 RegWrite5 $end
$var reg 32 *# pc5 [31:0] $end
$var reg 32 +# pc5Plus4 [31:0] $end
$var reg 5 ,# rWR5 [4:0] $end
$var reg 32 -# readData5 [31:0] $end
$upscope $end
$upscope $end
$upscope $end
$enddefinitions $end
#0
$dumpvars
bx -#
bx ,#
bx +#
bx *#
bx )#
bx (#
bx '#
bx &#
bx %#
bx $#
bx ##
bx "#
bx !#
bx ~"
bx }"
bx |"
bx {"
bx z"
bx y"
bx x"
bx w"
bx v"
bx u"
bx t"
bx s"
bx r"
bx q"
bx p"
bx o"
bx n"
bx m"
bx l"
bx k"
bx j"
bx i"
bx h"
bx g"
bx f"
bx e"
bx d"
bx c"
bx b"
bx a"
bx `"
bx _"
bx ^"
bx ]"
bx \"
bx ["
b0 Z"
bx Y"
bx X"
b0 W"
b0 V"
bx U"
bx T"
bx S"
bx R"
bx Q"
bx P"
bx O"
bx N"
bx M"
bx L"
b111 K"
b0 J"
b0 I"
bx H"
bx G"
bx F"
bx E"
bx D"
bx C"
bx B"
bx A"
bx @"
bx ?"
x>"
x="
b0 <"
bx ;"
bx :"
bx 9"
bx 8"
bx 7"
b0 6"
bx 5"
b111 4"
bx 3"
bx 2"
bx 1"
bx 0"
bx /"
bx ."
bx -"
bx ,"
bx +"
bx *"
bx )"
bx ("
bx '"
bx &"
bx %"
bx $"
bx #"
b0 ""
b10000000000000000 !"
bx ~
0}
bx |
bx {
bx z
bx y
bx x
bx w
bx v
0u
bx t
xs
b0 r
bx q
bx p
bx o
bx n
xm
xl
xk
xj
bx i
xh
xg
xf
bx e
bx d
bx c
bx b
bx a
bx `
bx _
bx ^
bx ]
bx \
0[
b0 Z
0Y
0X
0W
0V
b0 U
0T
0S
0R
bx Q
bx P
bx O
bx N
b0 M
bx L
bx K
bx J
bx I
bx H
bx G
0F
bx E
bx D
bx C
bx B
bx A
bx @
x?
x>
x=
bx <
bx ;
bx :
bx 9
bx 8
bx 7
bx 6
bx 5
bx 4
bx 3
x2
bx 1
bx 0
bx /
bx .
bx -
bx ,
bx +
bx *
bx )
b111 (
0'
x&
b0 %
b0 $
1#
0"
b0 !
$end
#5000
1&
b0 n
b0 G"
b0 n"
b0 C
b0 O"
b1 B
b1 P"
b0 J
b0 A"
b0 ^"
0>"
b0 K
b0 C"
b0 ]"
0="
b0 )
b0 H"
b0 I
b0 _"
b0 O
b0 X"
b0 N
b0 Y"
b0 p
b0 y
b0 E"
0s
b0 F"
b0 ,
b0 2"
b0 s"
b0 -
b0 1"
b0 D"
b100000000001010010011 D
b100000000001010010011 8"
b100000000001010010011 L"
b100 *
b100 ;"
b0 G
b0 &"
b0 @"
b0 U"
b0 a"
b0 H
b0 '"
b0 B"
b0 T"
b0 `"
b0 P
b0 S"
b0 \"
b0 Q
b0 R"
b0 ["
b0 L
b0 5"
b0 Q"
b0 \
b0 ("
b0 m"
b0 v"
b0 ]
b0 )"
b0 l"
b0 u"
b0 c
b0 w
b0 d"
b0 p"
b0 b
b0 v
b0 e"
b0 ^
b0 *"
b0 k"
b0 t"
b0 a
b0 f"
b0 o
b0 x
b0 b"
0j
0k
0l
0m
b0 i
b0 c"
b0 o"
0h
0g
0f
b0 _
b0 +"
b0 j"
b0 `
b0 ,"
b0 i"
b0 e
b0 g"
b0 q"
b0 d
b0 h"
b0 r"
b0 5
b0 -"
b0 !#
b0 6
b0 #"
b0 ~"
b0 7
b0 ."
b0 }"
b0 &#
b0 :
b0 {
b0 y"
b0 @
b0 x"
b0 ##
0?
0>
0=
b0 8
b0 $"
b0 /"
b0 |"
b0 ;
b0 {"
b0 %#
b0 <
b0 z"
b0 $#
b0 A
b0 |
b0 0"
b0 w"
b0 "#
b0 1
b0 *#
b0 0
b0 +#
b0 .
b0 %"
b0 ?"
b0 ,#
b0 3
b0 )#
02
b0 /
b0 -#
b0 4
b0 (#
b100 E
b100 N"
b0 q
b0 7"
b0 9"
b0 M"
1"
#6000
b0 9
b0 ~
b0 '#
#10000
0"
#15000
1"
#20000
0"
0#
#25000
b1 M
b1 6"
b1 Z"
b0 B
b0 P"
bx J
bx A"
bx ^"
b0 (
b0 4"
b0 K"
1Y
b11 Z
b11 I"
b11 V"
1R
b10011 )
b10011 H"
b101 I
b101 _"
b1100010011 D
b1100010011 8"
b1100010011 L"
b1000 *
b1000 ;"
b1 G
b1 &"
b1 @"
b1 U"
b1 a"
b100 P
b100 S"
b100 \"
b100000000001010010011 L
b100000000001010010011 5"
b100000000001010010011 Q"
b1000 E
b1000 N"
b100 q
b100 7"
b100 9"
b100 M"
1"
#30000
0"
#35000
b110 C
b110 O"
b101 B
b101 P"
0&
b1 n
b1 G"
b1 n"
b10100110010000000100011 D
b10100110010000000100011 8"
b10100110010000000100011 L"
b1 F"
b0 J
b0 A"
b0 ^"
b1100 *
b1100 ;"
bx ,
bx 2"
bx s"
b110 I
b110 _"
b0 M
b0 6"
b0 Z"
b1100 E
b1100 N"
b1000 q
b1000 7"
b1000 9"
b1000 M"
b1 \
b1 ("
b1 m"
b1 v"
b101 ^
b101 *"
b101 k"
b101 t"
b1 a
b1 f"
b11 o
b11 x
b11 b"
1m
1f
bx _
bx +"
bx j"
b100 d
b100 h"
b100 r"
b0 G
b0 &"
b0 @"
b0 U"
b0 a"
b1000 P
b1000 S"
b1000 \"
b100 Q
b100 R"
b100 ["
b1100010011 L
b1100010011 5"
b1100010011 Q"
1"
#40000
0"
#45000
b1 (
b1 4"
b1 K"
b0 Z
b0 I"
b0 V"
1T
0R
1&
b0 n
b0 G"
b0 n"
b0 C
b0 O"
b0 B
b0 P"
bx J
bx A"
bx ^"
bx K
bx C"
bx ]"
b100011 )
b100011 H"
b0 I
b0 _"
b10 O
b10 X"
b0 M
b0 6"
b0 Z"
b0 F"
b0 ,
b0 2"
b0 s"
b1101111 D
b1101111 8"
b1101111 L"
b10000 *
b10000 ;"
b101 G
b101 &"
b101 @"
b101 U"
b101 a"
b110 H
b110 '"
b110 B"
b110 T"
b110 `"
b1100 P
b1100 S"
b1100 \"
b1000 Q
b1000 R"
b1000 ["
b10100110010000000100011 L
b10100110010000000100011 5"
b10100110010000000100011 Q"
b0 \
b0 ("
b0 m"
b0 v"
b110 ^
b110 *"
b110 k"
b110 t"
b0 a
b0 f"
b0 _
b0 +"
b0 j"
b100 e
b100 g"
b100 q"
b1000 d
b1000 h"
b1000 r"
b1 5
b1 -"
b1 !#
b101 7
b101 ."
b101 }"
b101 &#
1=
bx 8
bx $"
bx /"
bx |"
b100 ;
b100 {"
b100 %#
b1 A
b1 |
b1 0"
b1 w"
b1 "#
b10000 E
b10000 N"
b1100 q
b1100 7"
b1100 9"
b1100 M"
1"
#50000
0"
#55000
bx C
bx O"
bx B
bx P"
b1 ,
b1 2"
b1 s"
bx D
bx 8"
bx L"
b1 !
b1 r
b1 ""
b1 <"
b0 J
b0 A"
b0 ^"
b0 K
b0 C"
b0 ]"
b10100 *
b10100 ;"
b100 (
b100 4"
b100 K"
1V
b10 U
b10 J"
b10 W"
0T
1R
b1101111 )
b1101111 H"
b0 O
b0 X"
b10100 E
b10100 N"
b10000 q
b10000 7"
b10000 9"
b10000 M"
b100 0
b100 +#
b101 .
b101 %"
b101 ?"
b101 ,#
12
b1 4
b1 (#
b0 5
b0 -"
b0 !#
b110 7
b110 ."
b110 }"
b110 &#
b0 8
b0 $"
b0 /"
b0 |"
b1000 ;
b1000 {"
b1000 %#
b100 <
b100 z"
b100 $#
b0 A
b0 |
b0 0"
b0 w"
b0 "#
b101 \
b101 ("
b101 m"
b101 v"
b110 ]
b110 )"
b110 l"
b110 u"
b10 c
b10 w
b10 d"
b10 p"
b0 ^
b0 *"
b0 k"
b0 t"
b0 o
b0 x
b0 b"
1h
0f
bx _
bx +"
bx j"
bx `
bx ,"
bx i"
b1000 e
b1000 g"
b1000 q"
b1100 d
b1100 h"
b1100 r"
b0 G
b0 &"
b0 @"
b0 U"
b0 a"
b0 H
b0 '"
b0 B"
b0 T"
b0 `"
b10000 P
b10000 S"
b10000 \"
b1100 Q
b1100 R"
b1100 ["
b1101111 L
b1101111 5"
b1101111 Q"
1"
#60000
0"
#65000
b111 (
b111 4"
b111 K"
0V
0Y
b0 U
b0 J"
b0 W"
0R
bx J
bx A"
bx ^"
x>"
bx K
bx C"
bx ]"
x="
bx )
bx H"
bx I
bx _"
bx O
bx X"
bx N
bx Y"
b0 M
b0 6"
b0 Z"
b1 +
b1 z
b1 3"
b0 ,
b0 2"
b0 s"
1[
1F
1u
b1100 t
b1100 :"
b0 !
b0 r
b0 ""
b0 <"
b1100 *
b1100 ;"
bx G
bx &"
bx @"
bx U"
bx a"
bx H
bx '"
bx B"
bx T"
bx `"
b10100 P
b10100 S"
b10100 \"
b10000 Q
b10000 R"
b10000 ["
bx L
bx 5"
bx Q"
b0 \
b0 ("
b0 m"
b0 v"
b0 ]
b0 )"
b0 l"
b0 u"
b0 c
b0 w
b0 d"
b0 p"
1j
b10 i
b10 c"
b10 o"
0h
1f
b0 _
b0 +"
b0 j"
b0 `
b0 ,"
b0 i"
b1100 e
b1100 g"
b1100 q"
b10000 d
b10000 h"
b10000 r"
b101 5
b101 -"
b101 !#
b110 6
b110 #"
b110 ~"
b0 7
b0 ."
b0 }"
b0 &#
b10 :
b10 {
b10 y"
1?
0=
b1 8
b1 $"
b1 /"
b1 |"
b1100 ;
b1100 {"
b1100 %#
b1000 <
b1000 z"
b1000 $#
b100 1
b100 *#
b1000 0
b1000 +#
b110 .
b110 %"
b110 ?"
b110 ,#
b0 4
b0 (#
b11000 E
b11000 N"
b10100 q
b10100 7"
b10100 9"
b10100 M"
1"
#70000
0"
#75000
b0 C
b0 O"
b0 B
b0 P"
0[
0F
b10000 *
b10000 ;"
x&
bx n
bx G"
bx n"
b1101111 D
b1101111 8"
b1101111 L"
bx F"
0u
b0 J
b0 A"
b0 ^"
0>"
b0 K
b0 C"
b0 ]"
0="
bx ,
bx 2"
bx s"
bx -
bx 1"
bx D"
b0 )
b0 H"
b0 I
b0 _"
b0 O
b0 X"
b0 N
b0 Y"
b10000 E
b10000 N"
b1100 q
b1100 7"
b1100 9"
b1100 M"
b1000 1
b1000 *#
b1100 0
b1100 +#
b0 .
b0 %"
b0 ?"
b0 ,#
02
b0 5
b0 -"
b0 !#
b0 6
b0 #"
b0 ~"
b0 :
b0 {
b0 y"
b10 @
b10 x"
b10 ##
0?
1=
b0 8
b0 $"
b0 /"
b0 |"
b10000 ;
b10000 {"
b10000 %#
b1100 <
b1100 z"
b1100 $#
bx \
bx ("
bx m"
bx v"
bx ]
bx )"
bx l"
bx u"
bx c
bx w
bx d"
bx p"
bx b
bx v
bx e"
bx ^
bx *"
bx k"
bx t"
0j
0m
b0 i
b0 c"
b0 o"
0f
bx _
bx +"
bx j"
bx `
bx ,"
bx i"
b10000 e
b10000 g"
b10000 q"
b10100 d
b10100 h"
b10100 r"
b0 G
b0 &"
b0 @"
b0 U"
b0 a"
b0 H
b0 '"
b0 B"
b0 T"
b0 `"
b0 P
b0 S"
b0 \"
b0 Q
b0 R"
b0 ["
b0 L
b0 5"
b0 Q"
1"
#80000
0"
#85000
1&
b0 n
b0 G"
b0 n"
b100 (
b100 4"
b100 K"
1V
1Y
b10 U
b10 J"
b10 W"
1R
b0 F"
bx C
bx O"
bx B
bx P"
b1101111 )
b1101111 H"
b10000 !
b10000 r
b10000 ""
b10000 <"
b0 ,
b0 2"
b0 s"
b0 -
b0 1"
b0 D"
bx D
bx 8"
bx L"
b10100 *
b10100 ;"
b10000 P
b10000 S"
b10000 \"
b1100 Q
b1100 R"
b1100 ["
b1101111 L
b1101111 5"
b1101111 Q"
b0 \
b0 ("
b0 m"
b0 v"
b0 ]
b0 )"
b0 l"
b0 u"
b0 c
b0 w
b0 d"
b0 p"
b0 b
b0 v
b0 e"
b0 ^
b0 *"
b0 k"
b0 t"
b0 _
b0 +"
b0 j"
b0 `
b0 ,"
b0 i"
b0 e
b0 g"
b0 q"
b0 d
b0 h"
b0 r"
bx 5
bx -"
bx !#
bx 6
bx #"
bx ~"
bx 7
bx ."
bx }"
bx &#
bx :
bx {
bx y"
b0 @
b0 x"
b0 ##
0=
bx 8
bx $"
bx /"
bx |"
b10100 ;
b10100 {"
b10100 %#
b10000 <
b10000 z"
b10000 $#
bx A
bx |
bx 0"
bx w"
bx "#
b1100 1
b1100 *#
b10000 0
b10000 +#
b10 3
b10 )#
12
b10100 E
b10100 N"
b10000 q
b10000 7"
b10000 9"
b10000 M"
1"
